\select@language {english}
\contentsline {section}{\numberline {0}Preliminaries}{4}
\contentsline {section}{\numberline {1}Group actions}{5}
\contentsline {section}{\numberline {2}Representation of groups}{11}
\contentsline {section}{\numberline {3}Invariant polynomial functions}{16}
