\relax 
\select@language{english}
\@writefile{toc}{\select@language{english}}
\@writefile{lof}{\select@language{english}}
\@writefile{lot}{\select@language{english}}
\@writefile{toc}{\contentsline {section}{\numberline {0}Preliminaries}{4}}
\@writefile{toc}{\contentsline {section}{\numberline {1}Group actions}{5}}
\newlabel{lemI.1}{{1.1}{5}}
\newlabel{lemI.1@cref}{{[lemma][1][1]1.1}{5}}
\newlabel{lemI.2}{{1.2}{6}}
\newlabel{lemI.2@cref}{{[lemma][2][1]1.2}{6}}
\newlabel{lemI.3}{{1.3}{7}}
\newlabel{lemI.3@cref}{{[lemma][3][1]1.3}{7}}
\newlabel{lemI.4}{{1.4}{7}}
\newlabel{lemI.4@cref}{{[lemma][4][1]1.4}{7}}
\newlabel{lemI.5}{{1.5}{7}}
\newlabel{lemI.5@cref}{{[lemma][5][1]1.5}{7}}
\newlabel{lemI.6}{{1.6}{8}}
\newlabel{lemI.6@cref}{{[lemma][6][1]1.6}{8}}
\newlabel{lemI.7}{{1.7}{9}}
\newlabel{lemI.7@cref}{{[lemma][7][1]1.7}{9}}
\newlabel{lemI.8}{{1.8}{10}}
\newlabel{lemI.8@cref}{{[lemma][8][1]1.8}{10}}
\@writefile{toc}{\contentsline {section}{\numberline {2}Representation of groups}{11}}
\newlabel{lemii1}{{2.1}{12}}
\newlabel{lemii1@cref}{{[lemma][1][2]2.1}{12}}
\newlabel{lemii2}{{2.2}{12}}
\newlabel{lemii2@cref}{{[lemma][2][2]2.2}{12}}
\newlabel{lemii3}{{2.3}{13}}
\newlabel{lemii3@cref}{{[lemma][3][2]2.3}{13}}
\newlabel{lemii5}{{2.5}{13}}
\newlabel{lemii5@cref}{{[lemma][5][2]2.5}{13}}
\newlabel{schur}{{2.6}{13}}
\newlabel{schur@cref}{{[lemma][6][2]2.6}{13}}
\newlabel{maschke}{{2.8}{15}}
\newlabel{maschke@cref}{{[theorem][8][2]2.8}{15}}
\@writefile{toc}{\contentsline {section}{\numberline {3}Invariant polynomial functions}{16}}
\newlabel{lemiii1}{{3.1}{16}}
\newlabel{lemiii1@cref}{{[lemma][1][3]3.1}{16}}
